module gitlab.com/nguyenvhoang99/code-practice-user

go 1.20

require (
	github.com/gin-gonic/gin v1.9.1
	github.com/golang-jwt/jwt/v5 v5.0.0
	github.com/spf13/viper v1.18.2
	gitlab.com/nguyenvhoang99/common-pkg v0.0.0-20240301182056-3ccc1c9e257c
	go.opentelemetry.io/contrib/instrumentation/github.com/gin-gonic/gin/otelgin v0.48.0
	go.opentelemetry.io/otel v1.24.0
	golang.org/x/crypto v0.19.0
	google.golang.org/protobuf v1.32.0
)

require (
	github.com/bytedance/sonic v1.9.1 // indirect
	github.com/cenkalti/backoff/v4 v4.2.1 // indirect
	github.com/cespare/xxhash/v2 v2.2.0 // indirect
	github.com/chenzhuoyu/base64x v0.0.0-20221115062448-fe3a3abad311 // indirect
	github.com/dgryski/go-rendezvous v0.0.0-20200823014737-9f7001d12a5f // indirect
	github.com/gabriel-vasile/mimetype v1.4.2 // indirect
	github.com/gin-contrib/sse v0.1.0 // indirect
	github.com/go-logr/logr v1.4.1 // indirect
	github.com/go-logr/stdr v1.2.2 // indirect
	github.com/go-playground/locales v0.14.1 // indirect
	github.com/go-playground/universal-translator v0.18.1 // indirect
	github.com/go-playground/validator/v10 v10.14.0 // indirect
	github.com/goccy/go-json v0.10.2 // indirect
	github.com/golang/protobuf v1.5.3 // indirect
	github.com/golang/snappy v0.0.4 // indirect
	github.com/grpc-ecosystem/grpc-gateway/v2 v2.19.0 // indirect
	github.com/jmoiron/sqlx v1.3.5 // indirect
	github.com/json-iterator/go v1.1.12 // indirect
	github.com/klauspost/compress v1.17.0 // indirect
	github.com/klauspost/cpuid/v2 v2.2.4 // indirect
	github.com/leodido/go-urn v1.2.4 // indirect
	github.com/lib/pq v1.10.9 // indirect
	github.com/mattn/go-isatty v0.0.19 // indirect
	github.com/modern-go/concurrent v0.0.0-20180306012644-bacd9c7ef1dd // indirect
	github.com/modern-go/reflect2 v1.0.2 // indirect
	github.com/montanaflynn/stats v0.7.1 // indirect
	github.com/redis/go-redis/extra/rediscmd/v9 v9.0.5 // indirect
	github.com/redis/go-redis/extra/redisotel/v9 v9.0.5 // indirect
	github.com/sagikazarmark/locafero v0.4.0 // indirect
	github.com/sagikazarmark/slog-shim v0.1.0 // indirect
	github.com/sourcegraph/conc v0.3.0 // indirect
	github.com/twitchyliquid64/golang-asm v0.15.1 // indirect
	github.com/ugorji/go/codec v1.2.11 // indirect
	github.com/uptrace/opentelemetry-go-extra/otelsql v0.2.3 // indirect
	github.com/uptrace/opentelemetry-go-extra/otelsqlx v0.2.3 // indirect
	github.com/xdg-go/pbkdf2 v1.0.0 // indirect
	github.com/xdg-go/scram v1.1.2 // indirect
	github.com/xdg-go/stringprep v1.0.4 // indirect
	github.com/youmark/pkcs8 v0.0.0-20201027041543-1326539a0a0a // indirect
	go.opentelemetry.io/contrib/instrumentation/go.mongodb.org/mongo-driver/mongo/otelmongo v0.48.0 // indirect
	go.opentelemetry.io/contrib/instrumentation/google.golang.org/grpc/otelgrpc v0.48.0 // indirect
	go.opentelemetry.io/contrib/instrumentation/runtime v0.48.0 // indirect
	go.opentelemetry.io/otel/exporters/otlp/otlpmetric/otlpmetricgrpc v1.24.0 // indirect
	go.opentelemetry.io/otel/exporters/otlp/otlpmetric/otlpmetrichttp v1.24.0 // indirect
	go.opentelemetry.io/otel/exporters/otlp/otlptrace v1.24.0 // indirect
	go.opentelemetry.io/otel/exporters/otlp/otlptrace/otlptracegrpc v1.24.0 // indirect
	go.opentelemetry.io/otel/metric v1.24.0 // indirect
	go.opentelemetry.io/otel/sdk v1.24.0 // indirect
	go.opentelemetry.io/otel/sdk/metric v1.24.0 // indirect
	go.opentelemetry.io/proto/otlp v1.1.0 // indirect
	go.uber.org/dig v1.17.1 // indirect
	go.uber.org/multierr v1.11.0 // indirect
	golang.org/x/arch v0.3.0 // indirect
	golang.org/x/exp v0.0.0-20240103183307-be819d1f06fc // indirect
	golang.org/x/net v0.21.0 // indirect
	golang.org/x/oauth2 v0.17.0 // indirect
	golang.org/x/sync v0.5.0 // indirect
	google.golang.org/genproto/googleapis/api v0.0.0-20240116215550-a9fa1716bcac // indirect
	google.golang.org/genproto/googleapis/rpc v0.0.0-20240116215550-a9fa1716bcac // indirect
)

require (
	github.com/btcsuite/btcutil v1.0.2
	github.com/fsnotify/fsnotify v1.7.0 // indirect
	github.com/hashicorp/hcl v1.0.0 // indirect
	github.com/magiconair/properties v1.8.7 // indirect
	github.com/mitchellh/mapstructure v1.5.0 // indirect
	github.com/pelletier/go-toml/v2 v2.1.1 // indirect
	github.com/redis/go-redis/v9 v9.4.0
	github.com/spf13/afero v1.11.0 // indirect
	github.com/spf13/cast v1.6.0 // indirect
	github.com/spf13/pflag v1.0.5 // indirect
	github.com/subosito/gotenv v1.6.0 // indirect
	go.mongodb.org/mongo-driver v1.14.0
	go.opentelemetry.io/contrib/propagators/b3 v1.24.0 // indirect
	go.opentelemetry.io/otel/exporters/otlp/otlptrace/otlptracehttp v1.24.0 // indirect
	go.opentelemetry.io/otel/trace v1.24.0
	go.uber.org/fx v1.20.1
	go.uber.org/zap v1.27.0
	golang.org/x/sys v0.17.0 // indirect
	golang.org/x/text v0.14.0 // indirect
	google.golang.org/grpc v1.61.1
	gopkg.in/ini.v1 v1.67.0 // indirect
	gopkg.in/yaml.v3 v3.0.1 // indirect
)
